<svg width="56" height="56" viewBox="0 0 56 56" fill="none" xmlns="http://www.w3.org/2000/svg">
<path d="M28 54.5C42.6355 54.5 54.5 42.6355 54.5 28C54.5 13.3645 42.6355 1.5 28 1.5C13.3645 1.5 1.5 13.3645 1.5 28C1.5 42.6355 13.3645 54.5 28 54.5Z" stroke="#EA582A" stroke-width="2"/>
<path d="M40.9934 40V39.9989H41V30.3535C41 25.6348 39.984 22 34.4668 22C31.8145 22 30.0346 23.4553 29.3079 24.8349H29.2312V22.4405H24V39.9989H29.4471V31.3046C29.4471 29.0155 29.8811 26.8019 32.7165 26.8019C35.5102 26.8019 35.5518 29.4143 35.5518 31.4515V40H40.9934Z" fill="white"/>
<path d="M15 23H21V40H15V23Z" fill="white"/>
<path d="M18 14C16.3439 14 15 15.3376 15 16.986C15 18.6344 16.3439 20 18 20C19.6561 20 21 18.6344 21 16.986C20.999 15.3376 19.6551 14 18 14Z" fill="white"/>
</svg>
